<?xml version="1.0" standalone="no"?>
<!DOCTYPE svg PUBLIC "-//W3C//DTD SVG 1.1//EN" "http://www.w3.org/Graphics/SVG/1.1/DTD/svg11.dtd" >
<svg xmlns="http://www.w3.org/2000/svg">
<metadata>
<json>
<![CDATA[
{
	"fontFamily": "winterval",
	"majorVersion": 1,
	"minorVersion": 0,
	"description": "Winterval 2018\nFont generated by IcoMoon.",
	"copyright": "Winterval - Emagine Media",
	"designer": "Aakrati Bajpaj (Emagine Media)",
	"version": "Version 1.0",
	"fontId": "winterval",
	"psName": "winterval",
	"subFamily": "Regular",
	"fullName": "winterval"
}
]]>
</json>
</metadata>
<defs>
<font id="winterval" horiz-adv-x="1024">
<font-face units-per-em="1024" ascent="960" descent="-64" />
<missing-glyph horiz-adv-x="1024" />
<glyph unicode="&#x20;" horiz-adv-x="512" d="" />
<glyph unicode="&#xe900;" d="M1007.548 435.725c-10.397-275.416-238.64-431.475-500.013-480.513-375.188-70.393-516.918 267.065-506.521 542.48 10.407 275.416 278.436 464.912 544.176 454.886 265.75-10.047 472.744-241.449 462.358-516.854z" />
<glyph unicode="&#xe901;" d="M566.513 398.63l112.497 121.658c13.33 14.415 34.942 14.415 48.272 0s13.33-37.787 0-52.203l-170.667-184.564c-13.33-14.415-34.942-14.415-48.272 0l-170.667 184.564c-13.33 14.415-13.33 37.787 0 52.203s34.942 14.415 48.272 0l112.297-121.442v246.551c0 20.386 15.282 36.913 34.133 36.913s34.133-16.526 34.133-36.913v-246.767z" />
<glyph unicode="&#xe902;" d="M500.815 946.708c-275.416-10.397-431.475-238.64-480.513-500.013-70.393-375.188 267.065-516.918 542.48-506.521 275.416 10.407 464.912 278.436 454.886 544.176-10.047 265.75-241.449 472.744-516.854 462.358z" />
<glyph unicode="&#xe903;" d="M390.6 505.673l121.658 112.497c14.415 13.33 14.415 34.942 0 48.272s-37.787 13.33-52.203 0l-184.564-170.667c-14.415-13.33-14.415-34.942 0-48.272l184.564-170.667c14.415-13.33 37.787-13.33 52.203 0s14.415 34.942 0 48.272l-121.442 112.297h246.551c20.386 0 36.913 15.282 36.913 34.133s-16.526 34.133-36.913 34.133h-246.767z" />
<glyph unicode="&#xe904;" d="M553.785 923.068c275.416-10.397 431.475-238.64 480.513-500.013 70.393-375.188-267.065-516.918-542.48-506.521-275.416 10.407-464.912 278.436-454.886 544.176 10.047 265.75 241.449 472.744 516.854 462.358z" />
<glyph unicode="&#xe905;" d="M590.88 482.033l-121.658 112.497c-14.415 13.33-14.415 34.942 0 48.272s37.787 13.33 52.203 0l184.564-170.667c14.415-13.33 14.415-34.942 0-48.272l-184.564-170.667c-14.415-13.33-37.787-13.33-52.203 0s-14.415 34.942 0 48.272l121.442 112.297h-246.551c-20.386 0-36.913 15.282-36.913 34.133s16.526 34.133 36.913 34.133h246.767z" />
<glyph unicode="&#xe906;" glyph-name="brochure" data-tags="brochure" d="M170.667 859.123v-410.89l128 77.503 129.231-77.503v410.89h-257.231zM1024 768.087v-639.709c0-105.952-86-191.913-192-191.913h-640c-106 0-192 85.961-192 191.913v639.709c0 105.952 86 191.913 192 191.913h640c106 0 192-85.961 192-191.913z" />
<glyph unicode="&#xe907;" glyph-name="calendar" data-tags="calendar" d="M865.166 42.825v557.056h-706.332v-557.056h706.332zM865.166 853.53c27.509 0 51.377-10.113 71.604-30.341s30.341-44.095 30.341-71.604v-708.76c0-27.509-10.113-50.972-30.341-70.391s-44.095-29.127-71.604-29.127h-706.332c-28.318 0-52.388 9.709-72.211 29.127s-29.734 42.881-29.734 70.391v708.76c0 27.509 9.911 51.377 29.734 71.604s43.893 30.341 72.211 30.341h49.759v99.518h101.945v-99.518h402.925v99.518h101.945v-99.518h49.759zM765.649 497.937v-99.518h-101.945v99.518h101.945zM561.759 497.937v-99.518h-99.518v99.518h99.518zM360.296 497.937v-99.518h-101.945v99.518h101.945z" />
<glyph unicode="&#xe908;" glyph-name="euro" data-tags="euro" d="M619.177 567.062c36.504-146.124-59.369-46.642-129.495-84.64-33.404-18.124-36.504-37.561 0-57.363 54.737-29.648 134.892 47.736 134.783-43.177-0.073-70.856-91.533-41.463-147.328-41.463 40.406-155.496 179.018 3.683 240.356-51.893 106.74-96.675-189.228-146.379-256.328-118.446-40.843 17.030-68.376 44.454-90.548 82.307-10.612 18.124-20.166 78.259-30.997 88.032-6.746 6.054-29.867-6.090-36.577 0-26.293 23.813-41.062-18.124-41.864 41.463-0.656 46.313 24.47 55.394 68.741 43.177-3.355 16.957-2.808 40.296 0 57.363-19.802-5.543-57.472-5.47-65.459 9.445-22.683 42.411 13.529 61.447 25.746 75.195 7.221 8.132 41.135-8.023 48.574 0 12.545 13.639 14.113 55.248 23.193 73.518 22.172 44.563 52.513 78.149 99.118 97.586 69.652 29.064 336.884-3.209 264.315-109.402-56.232-82.234-204.764 100.321-248.269-61.703h142.040zM843.633 787.215c-436.148 436.221-1109.297-239.59-674.425-674.425 434.762-434.762 1110.792 238.131 674.425 674.425z" />
<glyph unicode="&#xe909;" glyph-name="facebook" data-tags="facebook" d="M832 960c106 0 192-85.961 192-191.913v-639.709c0-105.952-86-191.913-192-191.913h-125.333v396.486h132.667l20 154.596h-152.667v98.622c0 44.646 12 74.633 76.667 74.633l81.333 0.666v137.937c-14 1.999-62.667 5.997-118.667 5.997-118 0-199.333-71.967-199.333-203.907v-113.948h-133.333v-154.596h133.333v-396.486h-354.667c-106 0-192 85.961-192 191.913v639.709c0 105.952 86 191.913 192 191.913h640z" />
<glyph unicode="&#xe90a;" glyph-name="helpdesk" data-tags="helpdesk" d="M655.501 545.934c13.559 14.313 24.293 30.508 32.203 48.587s11.864 37.288 11.864 57.626c0 33.898-8.474 65.536-25.423 94.914s-39.736 52.542-68.361 69.491c-28.625 16.949-59.886 25.423-93.784 25.423s-65.159-8.474-93.784-25.423c-28.625-16.949-51.412-40.112-68.361-69.491s-25.423-61.016-25.423-94.914h92.654c0 25.612 9.416 47.834 28.248 66.666s41.054 28.248 66.666 28.248c25.612 0 47.834-9.416 66.666-28.248s28.248-40.677 28.248-65.536c0-24.859-9.416-47.457-28.248-67.796l-57.626-58.756c-17.326-18.832-30.508-39.171-39.548-61.016-10.546-23.352-15.819-47.080-15.819-71.186v-24.858h92.654c0 32.392 5.273 59.51 15.819 81.355 6.78 14.313 19.962 32.015 39.548 53.107l41.807 41.807zM558.327 182.097v94.914h-92.654v-94.914h92.654zM840.81 934.631c25.612 0 47.834-9.039 66.666-27.118s28.248-39.924 28.248-65.536v-659.88c0-25.612-9.416-47.834-28.248-66.666s-41.054-28.248-66.666-28.248h-187.569l-141.241-141.241-141.241 141.241h-187.569c-26.365 0-48.775 9.416-67.231 28.248s-27.683 41.054-27.683 66.666v659.88c0 25.612 9.228 47.457 27.683 65.536s40.866 27.118 67.231 27.118h657.62z" />
<glyph unicode="&#xe90b;" glyph-name="instagram" data-tags="instagram" d="M682.653 448.233c0-93.95-76.66-170.575-170.653-170.575s-170.653 76.626-170.653 170.575c0 93.95 76.66 170.575 170.653 170.575s170.653-76.626 170.653-170.575zM774.645 448.233c0 145.255-117.324 262.526-262.645 262.526s-262.645-117.27-262.645-262.526c0-145.255 117.324-262.526 262.645-262.526s262.645 117.27 262.645 262.526zM846.639 721.42c0 33.982-27.331 61.3-61.328 61.3s-61.328-27.319-61.328-61.3c0-33.982 27.331-61.3 61.328-61.3s61.328 27.319 61.328 61.3zM1023.958 448.233c0-70.629 0.667-140.591-3.333-211.22-4-81.956-22.665-154.584-82.66-214.552s-132.656-78.624-214.649-82.622c-70.661-3.998-140.655-3.332-211.316-3.332s-140.655-0.666-211.316 3.332c-81.993 3.998-154.654 22.655-214.649 82.622s-78.66 132.596-82.66 214.552c-4 70.629-3.333 140.591-3.333 211.22s-0.667 140.591 3.333 211.22c4 81.956 22.665 154.584 82.66 214.552s132.656 78.624 214.649 82.622c70.661 3.998 140.655 3.332 211.316 3.332s140.655 0.666 211.316-3.332c81.993-3.998 154.654-22.655 214.649-82.622s78.66-132.595 82.66-214.552c4-70.629 3.333-140.591 3.333-211.22z" />
<glyph unicode="&#xe90c;" glyph-name="mail" data-tags="mail" d="M123.825 595.276c97.985-69.174 195.399-149.331 299.517-209.092 101.408-58.335 145.337-17.115 236.333 46.496 95.846 67.177 285.682 148.19 318.344 267.141 27.527 99.982-46.782 122.659-123.23 125.94-178.855 8.13-359.849 0-538.846 0-59.618 0-129.648 10.554-188.411 0-139.489-24.817-99.411-165.733-3.708-230.486zM931.395 538.453c-110.394-74.737-302.085-276.554-451.558-253.306-64.468 9.984-121.804 64.753-173.007 101.265-88.857 62.899-201.532 117.097-274.415 198.252v-226.064c0-59.19-22.963-172.436 6.276-228.346 57.194-109.11 373.398-52.344 469.814-52.344 97.272 0 411.194-56.338 469.814 52.344 27.67 51.488 6.276 159.172 6.276 213.513v240.897c-15.832-17.543-33.517-32.947-53.2-46.211z" />
<glyph unicode="&#xe90d;" glyph-name="phone" data-tags="phone" d="M631.029 398.429c-106.922 106.802-296.394 27.477-296.394-122.811 0-138.461 164.146-222.087 275.966-140.014-36.915 63.914-76.219 14.097-133.443 31.3-80.161 24.013-112.059 128.067-50.056 189.95 54.596 54.596 151.602 37.512 184.813-31.778 29.269-60.927-35.481-113.134 36.676-151.363 49.22 67.737 41.693 165.579-17.561 224.715zM881.429 68.943c5.973-102.263-234.989-63.197-291.257-63.197-112.298 0-285.164-33.331-391.847 0-102.501 32.136-57.941 177.645-52.565 268.917 5.376 90.913-6.332 80.281 49.459 124.364 82.67 65.348 210.259 82.431 131.054 218.741h351.946c-62.242-185.411 134.518-153.513 185.65-255.537 34.406-68.693 12.902-214.68 17.561-293.288zM1010.81 569.862c-25.566-128.545-138.938-161.398-238.334-79.086-105.488 87.449 89.002 171.672-65.945 205.959-56.746 12.544-428.165 25.924-459.106-13.5-71.082-90.316 134.877-145.39-62.361-220.772-118.988-45.397-190.787 44.68-184.694 166.416 8.84 177.526 189.831 242.037 339.043 253.148 214.082 16.008 750.124 39.424 671.397-312.164z" />
<glyph unicode="&#xe90e;" glyph-name="pin" data-tags="pin" d="M497.538 941.409c281.031 0 404.871-273.707 319.431-512.284-65.778-183.858-192.996-337.92-319.431-483.271-226.987 226.987-637.831 995.556 0 995.556zM497.538 468.058c163.413 0 163.413 248.924 0 248.924s-163.413-248.924 0-248.924z" />
<glyph unicode="&#xe90f;" glyph-name="twitter" data-tags="twitter" d="M853.333 638.813c-25.333-11.328-52-18.658-80.667-22.656 29.333 17.325 51.333 45.313 62 77.965-27.333-15.993-57.333-27.987-89.333-33.985-25.333 27.321-62 43.98-102 43.98-77.333 0-140-62.638-140-139.936 0-10.662 0.667-21.99 3.333-31.985-116.667 5.997-220 61.305-289.333 146.6-12-20.657-19.333-45.313-19.333-70.635 0-48.645 22.667-91.292 60.667-116.614-23.333 0.666-45.333 7.33-66.667 17.325v-1.333c0-67.969 51.333-124.61 115.333-137.271-12-3.332-21.333-5.331-34-5.331-8.667 0-17.333 1.333-26 2.665 18-55.308 69.333-95.956 130.667-97.289-48-37.316-108-59.973-174-59.973-11.333 0-22.667 0.666-33.333 1.999 62-39.315 135.333-62.638 214.667-62.638 257.333 0 398.667 213.236 398.667 398.485 0 5.997 0 11.995-0.667 17.992 27.333 19.325 51.333 43.98 70 72.634zM1024 768.087v-639.709c0-105.952-86-191.913-192-191.913h-640c-106 0-192 85.961-192 191.913v639.709c0 105.952 86 191.913 192 191.913h640c106 0 192-85.961 192-191.913z" />
<glyph unicode="&#xe910;" glyph-name="web" data-tags="web" d="M744.845 465.257c-63.147-200.818-85.807-64.98-124.587 68.772-40.17-138.335-61.63-266.904-125.124-68.772-63.178-200.755-85.807-65.043-124.65 68.741-40.138-138.366-61.598-266.84-125.092-68.741-64.822-205.875-88.209-56.731-126.925 76.705 68.899 11.062 60.745-54.171 75.125-108.595 42.54 135.269 62.704 131.54 104.865-2.339 36.946 146.141 106.603 146.995 144.845 2.339 42.572 135.269 62.704 131.54 104.865-2.339 36.978 146.141 106.603 146.995 144.877 2.339 42.509 135.206 62.673 131.571 104.865-2.276 9.355 36.946 18.71 73.924 28.034 110.87h46.301c-40.075-138.114-62.23-279.925-127.4-76.705zM485.463 930.482c-824.446 0-385.106-1347.192 281.031-856.462-35.65 2.307-60.618 73.987-89 92.318-13.938-21.428-27.907-42.825-41.845-64.221-18.552 49.114-31.7 122.058-34.544 174.522 54.835-9.355 127.874-30.594 177.683-55.277-25.474-10.935-50.979-21.871-76.484-32.838 13.653-28.286 88.115-66.813 81.572-101.041 338.268 274.141 138.967 842.999-298.414 842.999z" />
</font></defs></svg>