<?xml version="1.0" encoding="UTF-8"?>
<svg width="50px" height="50px" viewBox="0 0 50 50" version="1.1" xmlns="http://www.w3.org/2000/svg" xmlns:xlink="http://www.w3.org/1999/xlink">
    <!-- Generator: Sketch 51.3 (57544) - http://www.bohemiancoding.com/sketch -->
    <title>Group</title>
    <desc>Created with Sketch.</desc>
    <defs>
        <polygon id="path-1" points="0 -0.000103498243 49.1785587 -0.000103498243 49.1785587 49.191059 0 49.191059"></polygon>
    </defs>
    <g id="Page-1" stroke="none" stroke-width="1" fill="none" fill-rule="evenodd">
        <g id="1---Homepage" transform="translate(-754.000000, -721.000000)">
            <g id="Group" transform="translate(755.000000, 719.000000)">
                <g id="Button-/-Go" transform="translate(25.000000, 25.559093) rotate(-270.000000) translate(-25.000000, -25.559093) translate(0.000000, 0.559093)">
                    <g id="Group-3" stroke-width="1" fill-rule="evenodd" transform="translate(1.785156, 1.785156)">
                        <mask id="mask-2" fill="white">
                            <use xlink:href="#path-1"></use>
                        </mask>
                        <g id="Clip-2"></g>
                        <path d="M25.2551238,0.0181639417 C38.703168,0.525822824 46.3232262,11.6705136 48.717658,24.432882 C52.1548347,42.7525885 35.6773969,49.6729986 22.2293527,49.1653397 C8.78130844,48.6571633 -0.471434498,35.5698105 0.0181121926,22.5942357 C0.508693865,9.61814349 11.8075971,-0.48897745 25.2551238,0.0181639417" id="Fill-1" fill="#DE3A43" mask="url(#mask-2)"></path>
                    </g>
                    <path d="M21.1484318,26.6617839 L27.088759,32.154822 C27.7926325,32.8056959 27.7926325,33.8609708 27.088759,34.5118446 C26.3848856,35.1627185 25.2436814,35.1627185 24.539808,34.5118446 L15.5279051,26.1785113 C14.8240316,25.5276375 14.8240316,24.4723625 15.5279051,23.8214887 L24.539808,15.4881554 C25.2436814,14.8372815 26.3848856,14.8372815 27.088759,15.4881554 C27.7926325,16.1390292 27.7926325,17.1943041 27.088759,17.845178 L21.1589927,23.3284505 L33.1976194,23.3284505 C34.1930467,23.3284505 35,24.0746426 35,24.9951172 C35,25.9155918 34.1930467,26.6617839 33.1976194,26.6617839 L21.1484318,26.6617839 Z" id="Combined-Shape" fill="#FFFFFF" fill-rule="nonzero" transform="translate(25.000000, 25.000000) rotate(-180.000000) translate(-25.000000, -25.000000) "></path>
                </g>
            </g>
        </g>
    </g>
</svg>