<?xml version="1.0" encoding="UTF-8"?>
<svg width="1068px" height="10px" viewBox="0 0 1068 10" version="1.1" xmlns="http://www.w3.org/2000/svg" xmlns:xlink="http://www.w3.org/1999/xlink">
    <!-- Generator: Sketch 51.3 (57544) - http://www.bohemiancoding.com/sketch -->
    <title>Group 46</title>
    <desc>Created with Sketch.</desc>
    <defs></defs>
    <g id="Page-1" stroke="none" stroke-width="1" fill="none" fill-rule="evenodd">
        <g id="Group-46" transform="translate(0.296875, 0.611520)">
            <polygon id="Fill-1" fill="#DE3A43" points="57.6930547 0.000701158262 47.7433493 8.63034131 56.2448932 8.63034131 66.1945986 0.000701158262"></polygon>
            <polygon id="Fill-2" fill="#DE3A43" points="105.433842 0.000701158262 95.4841367 8.63034131 103.982984 8.63034131 113.935386 0.000701158262"></polygon>
            <polygon id="Fill-3" fill="#0D6F71" points="80.5804785 0.000701158262 70.6321214 8.63034131 81.0955601 8.63034131 91.0439171 0.000701158262"></polygon>
            <polygon id="Fill-4" fill="#DE3A43" points="9.94984026 0.000701158262 0.000134838127 8.62899293 0.000134838127 8.63034131 8.50167877 8.63034131 18.4527326 0.000701158262"></polygon>
            <polygon id="Fill-5" fill="#0D6F71" points="32.8409046 0.000701158262 22.8898508 8.63034131 33.3559863 8.63034131 43.3056917 0.000701158262"></polygon>
            <polygon id="Fill-6" fill="#0D6F71" points="176.062053 0.000701158262 166.112348 8.63034131 176.574438 8.63034131 186.524144 0.000701158262"></polygon>
            <polygon id="Fill-7" fill="#0D6F71" points="128.322479 0.000701158262 118.372774 8.63034131 128.836213 8.63034131 138.785918 0.000701158262"></polygon>
            <polygon id="Fill-8" fill="#DE3A43" points="153.172202 0.000701158262 143.222497 8.63034131 151.722693 8.63034131 161.672398 0.000701158262"></polygon>
            <polygon id="Fill-9" fill="#DE3A43" points="249.184095 0.000701158262 239.23439 8.63034131 247.735934 8.63034131 257.685639 0.000701158262"></polygon>
            <polygon id="Fill-10" fill="#DE3A43" points="296.924883 0.000701158262 286.975177 8.63034131 295.474025 8.63034131 305.425078 0.000701158262"></polygon>
            <polygon id="Fill-11" fill="#0D6F71" points="272.072733 0.000701158262 262.123027 8.63034131 272.586466 8.63034131 282.534823 0.000701158262"></polygon>
            <polygon id="Fill-12" fill="#DE3A43" points="201.440881 0.000701158262 191.492524 8.63034131 199.99272 8.63034131 209.943773 0.000701158262"></polygon>
            <polygon id="Fill-13" fill="#0D6F71" points="224.331945 0.000701158262 214.383588 8.63034131 224.848375 8.63034131 234.796732 0.000701158262"></polygon>
            <polygon id="Fill-14" fill="#0D6F71" points="367.553094 0.000701158262 357.603389 8.63034131 368.065479 8.63034131 378.015184 0.000701158262"></polygon>
            <polygon id="Fill-15" fill="#DE3A43" points="392.404031 0.000701158262 382.455673 8.63034131 390.955869 8.63034131 400.905574 0.000701158262"></polygon>
            <polygon id="Fill-16" fill="#0D6F71" points="319.81352 0.000701158262 309.863815 8.63034131 320.327253 8.63034131 330.276959 0.000701158262"></polygon>
            <polygon id="Fill-17" fill="#DE3A43" points="344.663243 0.000701158262 334.713538 8.63034131 343.215082 8.63034131 353.166135 0.000701158262"></polygon>
            <polygon id="Fill-18" fill="#DE3A43" points="436.853689 0.000701158262 426.902635 8.63034131 435.406876 8.63034131 445.355233 0.000701158262"></polygon>
            <polygon id="Fill-19" fill="#DE3A43" points="484.594476 0.000701158262 474.643422 8.63034131 483.144966 8.63034131 493.094672 0.000701158262"></polygon>
            <polygon id="Fill-20" fill="#0D6F71" points="459.742326 0.000701158262 449.791272 8.63034131 460.254711 8.63034131 470.204416 0.000701158262"></polygon>
            <polygon id="Fill-21" fill="#0D6F71" points="412.000325 0.000701158262 402.051968 8.63034131 412.516755 8.63034131 422.467809 0.000701158262"></polygon>
            <polygon id="Fill-22" fill="#0D6F71" points="555.222687 0.000701158262 545.272982 8.63034131 555.735072 8.63034131 565.684778 0.000701158262"></polygon>
            <polygon id="Fill-23" fill="#DE3A43" points="580.073624 0.000701158262 570.123919 8.63034131 578.624114 8.63034131 588.575168 0.000701158262"></polygon>
            <polygon id="Fill-24" fill="#0D6F71" points="507.483114 0.000701158262 497.533408 8.63034131 507.996847 8.63034131 517.946552 0.000701158262"></polygon>
            <polygon id="Fill-25" fill="#DE3A43" points="532.332837 0.000701158262 522.383131 8.63034131 530.884675 8.63034131 540.83438 0.000701158262"></polygon>
            <polygon id="Fill-26" fill="#DE3A43" points="628.34473 0.000701158262 618.393676 8.63034131 626.897917 8.63034131 636.847622 0.000701158262"></polygon>
            <polygon id="Fill-27" fill="#DE3A43" points="676.085517 0.000701158262 666.135812 8.63034131 674.636007 8.63034131 684.587061 0.000701158262"></polygon>
            <polygon id="Fill-28" fill="#0D6F71" points="651.233367 0.000701158262 641.282313 8.63034131 651.745752 8.63034131 661.695457 0.000701158262"></polygon>
            <polygon id="Fill-29" fill="#0D6F71" points="603.49258 0.000701158262 593.542874 8.63034131 604.007661 8.63034131 613.958715 0.000701158262"></polygon>
            <polygon id="Fill-30" fill="#0D6F71" points="746.713728 0.000701158262 736.765371 8.63034131 747.226113 8.63034131 757.175818 0.000701158262"></polygon>
            <polygon id="Fill-31" fill="#DE3A43" points="771.564665 0.000701158262 761.614959 8.63034131 770.115155 8.63034131 780.066209 0.000701158262"></polygon>
            <polygon id="Fill-32" fill="#0D6F71" points="698.974154 0.000701158262 689.024449 8.63034131 699.487888 8.63034131 709.437593 0.000701158262"></polygon>
            <polygon id="Fill-33" fill="#DE3A43" points="723.825091 0.000701158262 713.874037 8.63034131 722.375581 8.63034131 732.326635 0.000701158262"></polygon>
            <polygon id="Fill-34" fill="#0D6F71" points="842.650382 0.000701158262 832.700676 8.63034131 843.162766 8.63034131 853.112472 0.000701158262"></polygon>
            <polygon id="Fill-35" fill="#DE3A43" points="867.502532 0.000701158262 857.551478 8.63034131 866.051673 8.63034131 876.004076 0.000701158262"></polygon>
            <polygon id="Fill-36" fill="#0D6F71" points="794.910808 0.000701158262 784.961102 8.63034131 795.424541 8.63034131 805.374246 0.000701158262"></polygon>
            <polygon id="Fill-37" fill="#DE3A43" points="819.761744 0.000701158262 809.812039 8.63034131 818.312234 8.63034131 828.263288 0.000701158262"></polygon>
            <polygon id="Fill-38" fill="#DE3A43" points="915.772424 0.000701158262 905.822718 8.63034131 914.325611 8.63034131 924.275316 0.000701158262"></polygon>
            <polygon id="Fill-39" fill="#DE3A43" points="963.514425 0.000701158262 953.564719 8.63034131 962.063567 8.63034131 972.015969 0.000701158262"></polygon>
            <polygon id="Fill-40" fill="#0D6F71" points="938.661061 0.000701158262 928.711356 8.63034131 939.174794 8.63034131 949.1245 0.000701158262"></polygon>
            <polygon id="Fill-41" fill="#0D6F71" points="890.921487 0.000701158262 880.971782 8.63034131 891.436569 8.63034131 901.386274 0.000701158262"></polygon>
            <polygon id="Fill-42" fill="#0D6F71" points="1034.14142 0.000701158262 1024.19307 8.63034131 1034.65381 8.63034131 1044.60351 0.000701158262"></polygon>
            <polygon id="Fill-43" fill="#DE3A43" points="1058.99357 0.000701158262 1049.04387 8.63034131 1057.54406 8.63034131 1067.49512 0.000701158262"></polygon>
            <polygon id="Fill-44" fill="#0D6F71" points="986.401849 0.000701158262 976.452143 8.63034131 986.915582 8.63034131 996.865287 0.000701158262"></polygon>
            <polygon id="Fill-45" fill="#DE3A43" points="1011.25279 0.000701158262 1001.30308 8.63034131 1009.80328 8.63034131 1019.75433 0.000701158262"></polygon>
        </g>
    </g>
</svg>