<?xml version="1.0" encoding="UTF-8"?>
<svg width="137px" height="154px" viewBox="0 0 137 154" version="1.1" xmlns="http://www.w3.org/2000/svg" xmlns:xlink="http://www.w3.org/1999/xlink">
    <!-- Generator: Sketch 51.3 (57544) - http://www.bohemiancoding.com/sketch -->
    <title>Group 12 Copy</title>
    <desc>Created with Sketch.</desc>
    <defs>
        <polygon id="path-1" points="0.000474607296 0.352818275 126.815091 0.352818275 126.815091 33.3964731 0.000474607296 33.3964731"></polygon>
    </defs>
    <g id="Page-1" stroke="none" stroke-width="1" fill="none" fill-rule="evenodd">
        <g id="Group-12-Copy" transform="translate(65.000000, 79.237097) rotate(-10.000000) translate(-65.000000, -79.237097) translate(1.500000, 7.237097)">
            <g id="Group-3" transform="translate(0.000000, 109.538523)">
                <mask id="mask-2" fill="white">
                    <use xlink:href="#path-1"></use>
                </mask>
                <g id="Clip-2"></g>
                <path d="M126.815091,16.8785775 C126.815091,33.8458942 72.7223468,33.3955189 63.4085476,33.3955189 C54.4497051,33.3955189 -0.332915127,33.7008581 0.00200378838,16.8785775 C0.331197594,0.270034339 51.5384869,0.481863397 60.9305293,0.387399088 C70.4160818,0.291026408 126.815091,-0.564877487 126.815091,16.8785775" id="Fill-1" fill="#DE3A43" mask="url(#mask-2)"></path>
            </g>
            <path d="M27.8883451,124.183545 C29.2117996,118.779995 26.1192862,109.532035 25.4055558,104.166653 C23.5134071,89.9578849 21.5620989,75.7557962 19.6069739,61.5546616 C16.7816323,41.033006 13.9324361,20.5151672 11.0632019,0.000190836989 L107.912974,0.000190836989 C104.714546,36.2010135 101.515164,72.4018361 98.3167359,108.602659 C98.0925024,111.135066 98.8167288,121.848654 96.9665642,123.885839 C95.3797546,125.631043 84.7415466,124.183545 82.4553195,124.183545 L27.8883451,124.183545 Z" id="Fill-4" fill="#B22425"></path>
            <path d="M100.909543,79.2567007 C74.671365,79.645054 48.4331874,80.0334073 22.1950098,80.4236689 C22.7808793,84.7127303 22.6845066,97.950138 25.9020183,99.7525934 C27.804663,100.817464 33.2501965,99.6428621 35.4591347,99.6104198 C47.3759504,99.4338956 59.2946746,99.2573714 71.2124446,99.079893 C76.4490115,99.002604 93.0690049,101.627567 97.7053896,98.687723 C101.404765,96.3413822 100.455351,84.3940325 100.909543,79.2567007" id="Fill-6" fill="#FDFBE6"></path>
            <path d="M102.200173,64.6559535 C102.77173,58.1865796 103.343287,51.7152973 103.915798,45.2459234 L17.5334346,46.5264396 C18.0429694,50.2095935 17.9847641,64.1798153 20.8969366,65.8610891 C22.1106598,66.5614609 26.7126938,65.7742583 28.070499,65.7532662 C37.3738022,65.6168178 46.6780596,65.478461 55.9813628,65.3410583 C71.3876329,65.1130081 86.793903,64.8840037 102.200173,64.6559535" id="Fill-8" fill="#FDFBE6"></path>
            <path d="M12.9950448,13.8410251 C13.66202,18.6319877 13.4988544,31.1423066 16.911974,33.167087 C18.8136646,34.2949336 25.1189187,33.0459055 27.2877811,33.0134632 C40.9383509,32.811176 54.5898749,32.6088888 68.2413989,32.4066016 C77.5246642,32.2682448 92.9166216,35.055419 101.676039,31.9104254 C105.152135,30.6642599 103.500441,32.7711003 105.247554,30.1690379 C107.492751,26.8255739 106.435514,16.7188469 106.812417,12.4507777 C75.5399595,12.9145116 44.2675022,13.3782454 12.9950448,13.8410251" id="Fill-10" fill="#FDFBE6"></path>
        </g>
    </g>
</svg>