<?xml version="1.0" encoding="UTF-8"?>
<svg width="249px" height="250px" viewBox="0 0 249 250" version="1.1" xmlns="http://www.w3.org/2000/svg" xmlns:xlink="http://www.w3.org/1999/xlink">
    <!-- Generator: Sketch 51.3 (57544) - http://www.bohemiancoding.com/sketch -->
    <title>Group 26</title>
    <desc>Created with Sketch.</desc>
    <defs>
        <polygon id="path-1" points="0.543041937 0.689023706 122.411303 0.689023706 122.411303 70.1745562 0.543041937 70.1745562"></polygon>
        <polygon id="path-3" points="0 0.0411288426 122.67567 0.0411288426 122.67567 66.7694157 0 66.7694157"></polygon>
        <polygon id="path-5" points="0.558220077 0.183782442 152.359901 0.183782442 152.359901 134.170342 0.558220077 134.170342"></polygon>
    </defs>
    <g id="Symbols" stroke="none" stroke-width="1" fill="none" fill-rule="evenodd">
        <g id="Group-26">
            <path d="M120.214356,129.440942 C100.078725,124.406305 82.1482999,112.893146 68.4591043,97.3546109 C59.6266124,87.3290909 52.7805562,75.7605101 47.7167497,63.4160234 C43.6096994,53.3963373 37.9362526,40.5793065 42.1803992,31.7351469 C48.9389473,17.6609153 80.6431593,7.67914938 94.3411057,4.29549992 C83.2567368,46.8011378 86.6082999,97.7979856 120.214356,129.440942" id="Fill-1" fill="#DE3A43"></path>
            <path d="M218.658137,44.0918847 C169.767319,43.356816 133.74312,82.0120941 123.781773,127.53093 C118.105409,106.703984 116.305658,86.7404526 121.949935,65.4322118 C126.418686,48.5431339 138.576489,17.4368944 154.917182,8.81150518 C172.503408,-0.464361446 206.964128,30.4406093 218.658137,44.0918847" id="Fill-3" fill="#DE3A43"></path>
            <g id="Group-7" transform="translate(126.161504, 91.677372)">
                <mask id="mask-2" fill="white">
                    <use xlink:href="#path-1"></use>
                </mask>
                <g id="Clip-6"></g>
                <path d="M122.398177,33.2315214 C122.398177,45.7364397 120.525502,58.2296903 116.806404,70.1745562 C90.9710738,31.8051381 42.5528001,23.9673225 0.543041937,36.5451643 C13.8792879,22.890972 31.0046379,11.8182708 49.0692423,5.73353567 C62.6971822,1.14519033 77.0893601,-0.607890127 91.3502758,1.70815959 C97.9746447,2.78451015 107.428445,4.43841467 113.157313,8.42587054 C123.162415,15.3886044 122.398177,20.6478457 122.398177,33.2315214" id="Fill-5" fill="#DE3A43" mask="url(#mask-2)"></path>
            </g>
            <path d="M150.412261,246.417496 C164.594419,212.805606 157.824203,177.043931 136.784321,148.119562 C125.539521,132.65395 118.708049,126.604219 142.011476,135.057508 C163.21179,142.74656 183.011973,156.117809 195.009344,175.553375 C200.534027,184.496711 211.510469,206.516685 207.336329,217.370615 C201.514119,232.492028 164.244387,243.46847 150.412261,246.417496" id="Fill-8" fill="#DE3A43"></path>
            <path d="M85.3878526,242.965007 C64.0096053,235.946851 44.6294613,222.913967 29.9835096,205.835288 C57.6681795,202.01118 84.2356616,190.346341 102.65905,168.842665 C111.33111,158.720886 114.428899,140.449179 122.905524,131.972553 C131.268389,140.414176 127.155505,166.462442 125.373255,176.843829 C120.837415,203.285883 106.736931,226.624313 85.3878526,242.965007" id="Fill-10" fill="#DE3A43"></path>
            <path d="M150.412261,246.417496 C129.013595,251.093349 106.182712,249.804062 85.3878526,242.96384 C118.900567,217.315194 132.370992,175.182924 125.206989,134.296187 C154.084687,164.413584 167.170077,206.700452 150.412261,246.417496" id="Fill-12" fill="#FDFBE6"></path>
            <g id="Group-16" transform="translate(0.000000, 91.677372)">
                <mask id="mask-4" fill="white">
                    <use xlink:href="#path-3"></use>
                </mask>
                <g id="Clip-15"></g>
                <path d="M122.67567,40.0907039 C120.835081,54.7366556 74.257396,64.8992717 64.2552115,65.9697884 C49.1162972,67.5916066 24.6285927,67.3699192 10.892726,59.2899977 C-0.871289736,52.368101 0.0125428385,47.6280748 0.0154597777,33.2300629 C0.0183767169,22.0290165 1.51476652,10.8367208 4.50171225,0.0411288426 C24.8065259,23.0411944 51.9807314,39.9098537 82.990712,42.5409328 C89.9826152,43.1359884 118.965323,36.2228425 122.67567,40.0907039" id="Fill-14" fill="#DE3A43" mask="url(#mask-4)"></path>
            </g>
            <path d="M122.538865,132.317919 C115.503208,153.553236 103.237479,171.924119 84.8753464,185.099934 C73.4992835,193.26153 48.6586294,207.959986 34.047681,205.168475 C16.394365,201.793577 5.1758169,164.307991 2.08386136,147.649351 C41.8417425,163.966709 89.4753595,161.94527 122.538865,132.317919" id="Fill-17" fill="#FDFBE6"></path>
            <g id="Group-21" transform="translate(5.833878, 0.534675)">
                <mask id="mask-6" fill="white">
                    <use xlink:href="#path-5"></use>
                </mask>
                <g id="Clip-20"></g>
                <path d="M117.624989,125.823937 C115.921497,137.386684 76.8490965,134.189719 66.4006203,132.214951 C44.2289655,128.026226 24.4054468,116.384722 8.16684634,100.968699 C-4.53934077,88.907155 0.854079795,80.9672465 8.53438068,66.4846434 C14.9837332,54.3122562 23.3436809,43.2366381 33.4042042,33.7974229 C41.5920525,77.3560758 69.7551004,117.74985 114.381353,128.907142 C101.931857,117.183963 93.4989854,102.672191 88.3535047,86.270242 C82.1141717,66.3913014 81.4257741,45.2259906 84.3106269,24.7024065 C86.9037859,6.25568306 88.5664412,2.3586523 106.983995,0.704747782 C122.207501,-0.660379759 137.629358,0.631824302 152.359901,4.82054898 C121.653282,35.5009154 101.783093,82.9420144 117.624989,125.823937" id="Fill-19" fill="#FDFBE6" mask="url(#mask-6)"></path>
            </g>
            <path d="M246.787932,103.937559 C220.739665,89.1136743 190.969383,89.4345376 164.133543,101.889868 C150.330587,108.292549 137.708991,124.659495 124.124805,129.02907 C120.286113,112.402517 141.676028,83.9156887 151.462359,73.1200967 C164.165629,59.1100378 180.582163,49.3237068 199.224321,45.715453 C214.716185,42.7168395 219.876251,43.8690305 228.565813,57.3015355 C237.695832,71.4136873 243.98767,87.35476 246.787932,103.937559" id="Fill-22" fill="#FDFBE6"></path>
            <path d="M242.967908,161.851928 C236.349373,183.145584 223.899877,202.452805 207.334579,217.370032 C205.368562,171.439908 168.24176,138.504747 124.837705,130.200221 C133.804376,120.968109 160.78023,122.111549 172.202964,122.788279 C200.914396,124.497605 226.714723,137.714257 242.967908,161.851928" id="Fill-24" fill="#FDFBE6"></path>
        </g>
    </g>
</svg>