<?xml version="1.0" encoding="UTF-8"?>
<svg width="250px" height="296px" viewBox="0 0 250 296" version="1.1" xmlns="http://www.w3.org/2000/svg" xmlns:xlink="http://www.w3.org/1999/xlink">
    <!-- Generator: Sketch 51.3 (57544) - http://www.bohemiancoding.com/sketch -->
    <title>Group 55 Copy</title>
    <desc>Created with Sketch.</desc>
    <defs>
        <polygon id="path-1" points="0.245317228 0.606729361 16.9116596 0.606729361 16.9116596 24.3524237 0.245317228 24.3524237"></polygon>
        <polygon id="path-3" points="0.225387649 0.14666212 136.941456 0.14666212 136.941456 61.0627081 0.225387649 61.0627081"></polygon>
    </defs>
    <g id="Page-1" stroke="none" stroke-width="1" fill="none" fill-rule="evenodd">
        <g id="Group-55-Copy" transform="translate(125.000000, 147.939867) rotate(180.000000) translate(-125.000000, -147.939867) translate(0.000000, -0.260890)">
            <path d="M159.544617,225.015944 C149.841316,227.252962 137.865596,232.418166 127.966745,232.298477 C117.501476,232.173729 106.99912,224.500098 96.5810518,223.045277 C85.5375628,221.504482 77.7240119,237.728347 75.43642,246.625848 C72.7206421,257.200693 75.4313627,267.711478 80.3099854,277.249573 C83.4202338,283.328465 84.6053311,282.288344 91.3635891,282.288344 C87.8251547,266.401634 90.102632,244.874332 109.696354,242.165297 C133.644424,238.854442 163.80119,256.73542 158.179142,283.652134 L169.089455,283.652134 C165.906719,264.105613 162.727354,244.560778 159.544617,225.015944" id="Fill-1" fill="#F04F44"></path>
            <path d="M199.379229,131.73715 C206.729193,118.407754 214.080842,105.078359 221.430806,91.7455925 C225.796954,83.8292096 230.163102,75.9111409 234.52925,67.9930722 C237.974967,61.7439172 237.942938,62.1771605 233.725137,55.8555174 C219.837752,69.742903 209.092644,85.7880761 194.134794,98.4987931 C175.813829,114.068579 157.489493,129.638364 139.168528,145.20815 C137.046142,147.013611 129.02187,156.312326 126.081884,156.33087 C123.421737,156.349413 116.002657,147.79918 114.079191,146.165668 C95.7396833,130.579025 77.3984894,114.992381 59.0572956,99.4057382 C42.4608752,85.3025739 28.6729502,68.6960389 13.2717418,53.2931447 C9.39109584,59.1090564 8.85164896,58.7938171 11.6719447,64.6485015 C15.3553554,72.2917895 19.0370803,79.9367632 22.720491,87.5834227 C29.1820532,100.993735 34.4484033,117.170398 42.8941185,129.456301 C48.0508935,136.961356 56.6668716,143.544293 63.6999103,149.134311 C79.5579627,161.743882 98.3661153,171.9546 118.782494,174.141046 C152.194485,177.719939 179.979371,157.087781 199.379229,131.73715" id="Fill-3" fill="#DE3A43"></path>
            <path d="M73.3067849,273.669501 L94.2760965,277.467544 C92.8769061,282.23322 91.8384709,292.816493 87.7150738,294.561267 C81.9362491,297.00395 70.1695641,294.561267 63.810834,294.561267 C66.5181831,290.001255 73.5613364,288.792557 78.2460953,288.104762 C76.5990966,283.291884 74.9537836,278.480692 73.3067849,273.669501" id="Fill-5" fill="#292547"></path>
            <path d="M172.182846,274.105778 C165.61508,275.295933 159.047315,276.486088 152.479549,277.676242 C155.023378,281.981703 158.88548,292.58352 163.197684,294.560929 C168.556752,297.018784 180.39761,294.560929 186.371985,294.560929 C183.357825,289.571046 175.70948,291.55857 172.801524,288.326946 C171.061808,286.389995 172.307593,276.98339 172.182846,274.105778" id="Fill-7" fill="#292547"></path>
            <g id="Group-11" transform="translate(232.636466, 38.626082)">
                <mask id="mask-2" fill="white">
                    <use xlink:href="#path-1"></use>
                </mask>
                <g id="Clip-10"></g>
                <path d="M7.41688884,6.97539292 C-12.436442,13.2801783 15.0315187,34.3759228 16.8858673,18.6409317 C17.2449366,15.6082287 13.7402177,13.5077575 13.6980734,11.2269086 C13.6576149,9.08935037 16.5672565,6.66183942 16.6346874,4.20061304 C16.8622665,-3.93154865 10.1225521,3.84322948 7.41688884,6.97539292" id="Fill-9" fill="#292547" mask="url(#mask-2)"></path>
            </g>
            <path d="M11.1770022,44.7322914 C26.1213664,53.8658013 1.09440285,67.2659989 0.0205664122,54.4035624 C-0.304787486,50.526288 3.35333665,49.980098 4.39851498,47.2457767 C5.05090855,45.5364044 3.3685086,42.9066008 3.63148895,40.7842145 C4.67498151,32.4143591 9.43054289,41.193857 11.1770022,44.7322914" id="Fill-12" fill="#292547"></path>
            <path d="M14.5385991,53.6434481 C12.2560645,53.6434481 3.63165753,63.3130333 11.6272717,60.9512675 C13.432733,60.4185637 20.7388666,53.6434481 14.5385991,53.6434481" id="Fill-14" fill="#FDFAE6"></path>
            <path d="M239.752108,62.0080776 C239.752108,59.7339719 230.063979,51.1297942 232.445974,59.1203511 C232.982049,60.9241266 239.752108,68.194859 239.752108,62.0080776" id="Fill-16" fill="#FDFAE6"></path>
            <path d="M204.545107,173.879751 C204.545107,208.630245 182.291238,240.580672 149.669873,252.596851 C116.67764,264.749578 78.6331485,254.478172 56.1719291,227.472113 C33.6871089,200.437395 30.6122617,160.981914 48.7073329,130.80829 C66.7282302,100.754355 102.530645,84.8356152 136.927127,91.5888158 C175.757187,99.2101887 204.545107,134.341667 204.545107,173.879751" id="Fill-18" fill="#DE3A43"></path>
            <path d="M173.180486,173.879751 C173.180486,202.490665 149.291418,226.379733 120.680504,226.379733 C92.0695902,226.379733 68.1805223,202.490665 68.1805223,173.879751 C68.1805223,145.267152 92.0695902,121.378084 120.680504,121.378084 C149.291418,121.378084 173.180486,145.267152 173.180486,173.879751" id="Fill-20" fill="#DE3A43"></path>
            <path d="M81.291273,87.3408402 C81.291273,109.144609 47.4190663,109.144609 47.4190663,87.3408402 C47.4190663,65.5589867 81.291273,65.5100993 81.291273,87.3408402" id="Fill-22" fill="#ECB29A"></path>
            <path d="M194.288873,87.3408402 C194.288873,109.144609 160.414981,109.144609 160.414981,87.3408402 C160.414981,65.5589867 194.288873,65.5100993 194.288873,87.3408402" id="Fill-24" fill="#ECB29A"></path>
            <path d="M181.016794,87.3423574 C181.016794,142.222648 110.217763,168.058782 74.8418484,126.103301 C39.2349829,83.878097 77.4177072,18.2982143 131.669205,28.1481771 C159.902506,33.2746083 181.016794,58.6707558 181.016794,87.3423574" id="Fill-26" fill="#FDFAE6"></path>
            <path d="M171.270844,71.5433069 C161.693976,41.2061631 126.232087,25.7982117 97.5840859,39.9182337 C70.8898943,53.077366 60.1515299,86.9006852 74.6575936,112.952598 C87.2688501,135.600938 115.372347,145.981919 139.640713,136.72029 C165.330185,126.914157 179.593497,97.8700003 171.270844,71.5433069" id="Fill-28" fill="#F2CDAA"></path>
            <path d="M176.739824,137.787215 L124.779289,137.787215 C107.626564,137.787215 88.5604882,140.196182 71.5459965,137.672583 C56.5611737,135.44905 52.9232788,110.944675 66.761777,104.373538 C72.1191588,101.828023 79.8214488,102.950747 85.5682438,102.950747 L157.484942,102.950747 C163.806585,102.950747 170.436724,102.375899 176.739824,102.950747 C195.69801,104.682034 196.500437,137.787215 176.739824,137.787215" id="Fill-30" fill="#FDFAE6"></path>
            <path d="M170.892219,164.494556 L121.858184,164.494556 L90.607352,164.494556 C85.1471381,164.494556 77.8966349,165.534677 72.8089765,163.120652 C61.3996751,157.700896 61.8194322,136.185395 73.8811272,131.684385 C78.8103231,129.843523 85.4876639,130.819584 90.607352,130.819584 L155.364578,130.819584 C161.467071,130.819584 169.769496,129.479396 175.678125,131.684385 C190.007182,137.031652 187.434695,164.494556 170.892219,164.494556" id="Fill-32" fill="#FDFAE6"></path>
            <path d="M164.654528,190.679981 L119.88718,190.679981 L92.9502372,190.679981 C86.7465981,190.679981 80.2024332,191.494209 75.3777551,186.667845 C68.0261057,179.317881 69.9647429,162.197186 80.1923185,158.377228 C84.7388442,156.681342 90.8531375,157.527599 95.5783549,157.527599 L153.980223,157.527599 C160.323781,157.527599 168.135646,156.357674 173.364909,160.722136 C183.177785,168.9133 178.847038,190.679981 164.654528,190.679981" id="Fill-34" fill="#FDFAE6"></path>
            <path d="M159.755339,212.743022 L122.321097,212.743022 C112.194667,212.743022 89.3895506,217.006338 83.418548,205.99825 C79.4148407,198.616256 81.4714819,185.863395 89.6491594,182.40082 C93.8602166,180.617274 99.6204978,181.391043 104.075992,181.391043 L152.334572,181.391043 C158.954597,181.391043 166.065181,180.681333 170.365584,187.050178 C176.368617,195.940937 171.936723,212.743022 159.755339,212.743022" id="Fill-36" fill="#FDFAE6"></path>
            <path d="M154.921895,234.159231 L109.433037,234.159231 C101.857179,234.159231 93.2580591,234.855455 89.6454508,226.327137 C85.4782236,216.487289 90.1983838,203.953578 101.439108,202.805567 C116.28064,201.29343 132.017317,202.805567 146.929652,202.805567 C153.703082,202.805567 161.132277,201.949195 165.53214,208.464702 C171.543601,217.367261 167.125194,234.159231 154.921895,234.159231" id="Fill-38" fill="#FDFAE6"></path>
            <path d="M88.9972716,82.6983941 C88.9972716,89.8730375 77.8745513,89.8730375 77.8745513,82.6983941 C77.8745513,75.5254364 88.9972716,75.5254364 88.9972716,82.6983941" id="Fill-40" fill="#502814"></path>
            <path d="M163.833051,82.6983941 C163.833051,89.8730375 152.710331,89.8730375 152.710331,82.6983941 C152.710331,75.5254364 163.833051,75.5254364 163.833051,82.6983941" id="Fill-42" fill="#502814"></path>
            <path d="M136.014619,82.8662969 C136.014619,96.7452536 105.694333,96.7452536 105.694333,82.8662969 C105.694333,68.9873402 136.014619,68.9873402 136.014619,82.8662969" id="Fill-44" fill="#ECB29A"></path>
            <path d="M114.484788,99.5709438 C117.962535,103.050376 123.431177,103.316728 127.224163,100.385171" id="Stroke-46" stroke="#4E2916" stroke-width="2.716" stroke-linecap="round" stroke-linejoin="round"></path>
            <g id="Group-50" transform="translate(67.430860, 0.643635)">
                <mask id="mask-4" fill="white">
                    <use xlink:href="#path-3"></use>
                </mask>
                <g id="Clip-49"></g>
                <path d="M136.941456,42.2661686 C123.660948,13.2017823 91.8268391,-3.91554145 60.2590821,0.976567426 C29.7887623,5.69841338 5.06018029,30.3359638 0.225387649,60.78774 L86.0008128,60.78774 C92.0291316,60.78774 98.4468637,61.4064182 104.454953,60.78774 C109.298175,60.2904374 108.804244,61.7772879 108.804244,55.8484295 C108.804244,53.1579382 107.689949,47.6977244 108.804244,45.236498 C110.490015,41.5041999 112.287048,42.4465462 115.704106,42.2661686 C122.738831,41.8919273 129.894931,42.2661686 136.941456,42.2661686" id="Fill-48" fill="#DE3A43" mask="url(#mask-4)"></path>
            </g>
            <path d="M212.37147,41.3639513 C212.37147,56.0706219 189.772017,55.7975269 189.770331,41.3639513 C189.770331,26.9826347 212.37147,26.5814211 212.37147,41.3639513" id="Fill-51" fill="#FDFAE6"></path>
            <path d="M175.738812,74.4111414 L120.853464,74.4111414 L83.1208408,74.4111414 C78.0449828,74.4111414 70.9209125,75.7395293 65.9681158,74.4111414 C59.6397296,72.7152553 60.6899653,67.6174823 60.6899653,62.2331281 C60.6899653,58.2934801 59.142427,50.1343461 61.6710843,46.6363703 C64.7071587,42.440485 74.5335208,44.2526894 78.9283271,44.2526894 L153.977188,44.2526894 C160.499438,44.2526894 169.310966,42.6630069 175.693297,44.2526894 C182.601588,45.9738621 181.016963,52.6006298 181.016963,58.3541679 C181.016963,62.8855217 183.088776,74.4111414 175.738812,74.4111414" id="Fill-53" fill="#FDFAE6"></path>
        </g>
    </g>
</svg>