<?xml version="1.0" encoding="UTF-8"?>
<svg width="197px" height="109px" viewBox="0 0 197 109" version="1.1" xmlns="http://www.w3.org/2000/svg" xmlns:xlink="http://www.w3.org/1999/xlink">
    <!-- Generator: Sketch 51.3 (57544) - http://www.bohemiancoding.com/sketch -->
    <title>Group 10</title>
    <desc>Created with Sketch.</desc>
    <defs>
        <polygon id="path-1" points="0.196227291 0.126893954 53.2526618 0.126893954 53.2526618 66.9303463 0.196227291 66.9303463"></polygon>
    </defs>
    <g id="Symbols" stroke="none" stroke-width="1" fill="none" fill-rule="evenodd">
        <g id="Group-10" transform="translate(0.187500, 0.906250)">
            <g id="Group-3" transform="translate(142.825047, 31.419412)">
                <mask id="mask-2" fill="white">
                    <use xlink:href="#path-1"></use>
                </mask>
                <g id="Clip-2"></g>
                <path d="M40.3667689,64.4270712 C42.0483393,62.4840455 42.8244487,60.2327778 42.3318119,58.3447954 C41.2859907,54.3596663 42.2630078,50.2424335 47.0958025,46.114192 C54.6174585,39.6934005 55.2201817,29.3150014 49.0608454,22.9685182 C44.6353706,18.4026831 44.7234397,13.8588654 46.4215231,10.10767 C47.2279062,8.32977397 46.8426037,5.97942849 45.5105578,3.78045187 C43.2042469,-0.0312910806 36.7421729,-1.09912954 32.9689602,1.7190833 C21.2750282,10.4461858 1.063158,25.4234458 1.063158,25.4234458 L6.11612555,30.9800588 L0.196227291,35.6064414 C0.196227291,35.6064414 17.6008933,53.7762082 27.6545374,64.3472585 C30.9020873,67.7599381 37.4494783,67.7957162 40.3667689,64.4270712" id="Fill-1" fill="#FFD04A" mask="url(#mask-2)"></path>
            </g>
            <path d="M12.8883699,14.8834113 C11.2067995,16.826437 10.4279379,19.0777047 10.9233269,20.9656871 C11.9663959,24.948064 10.9921309,29.068049 6.15658411,33.1962905 C-1.36231968,39.6170821 -1.96504294,49.9954811 4.19429333,56.3419643 C8.61976818,60.9050472 8.53169903,65.4516171 6.83361571,69.2028126 C6.02723254,70.9807086 6.41253508,73.331054 7.74458099,75.5272785 C10.0508919,79.3417736 16.5129659,80.4096121 20.2861786,77.5913992 C31.9801106,68.8642968 52.1919808,53.8870367 52.1919808,53.8870367 L47.1390132,48.3276715 L53.0561593,43.7040411 C53.0561593,43.7040411 35.6514933,25.5342743 25.6006014,14.963224 C22.3530515,11.5505444 15.8056605,11.5120142 12.8883699,14.8834113" id="Fill-4" fill="#FFD04A"></path>
            <path d="M154.183764,60.0898571 C150.578433,89.4499104 123.85495,110.330556 94.4976489,106.725225 C65.1348434,103.122646 44.2541981,76.4019152 47.8567768,47.0418619 C51.4621077,17.6818086 78.1828386,-3.1988367 107.545644,0.403742015 C136.905697,4.0090729 157.786343,30.7298038 154.183764,60.0898571" id="Fill-6" fill="#EB2C29"></path>
            <path d="M109.248957,11.5428384 L112.818509,34.2426621 C113.085469,35.9324889 114.643192,37.1076617 116.341275,36.8957453 L139.142929,34.0665238 C142.310666,33.6729648 144.011502,37.677359 141.529053,39.6809322 L123.651015,54.1215208 C122.321721,55.1948636 122.082283,57.1323849 123.114344,58.500209 L136.968722,76.8323532 C138.892482,79.3781021 136.272425,82.8513293 133.294587,81.7036782 L111.855253,73.4416909 C110.256247,72.827959 108.461838,73.5930598 107.795816,75.1672958 L98.8430359,96.3314137 C97.6018113,99.2679695 93.2836707,98.7395546 92.7910339,95.5855781 L89.2242332,72.8885065 C88.9572736,71.1986797 87.3967984,70.0207548 85.6959629,70.2326712 L62.8970613,73.0646448 C59.729324,73.4554517 58.0312407,69.4538096 60.5136899,67.4474843 L78.3862233,53.0096478 C79.7182692,51.9335529 79.9522029,49.9960315 78.9228947,48.6337118 L65.0712685,30.2960633 C63.1502601,27.7558187 65.7648131,24.2798394 68.7426512,25.4274905 L90.1819853,33.6867256 C91.7782386,34.3032096 93.5781519,33.5381089 94.246927,31.9611206 L103.194202,10.7997549 C104.438179,7.86319913 108.753568,8.39161404 109.248957,11.5428384" id="Fill-8" fill="#FFFFFF"></path>
        </g>
    </g>
</svg>