<?xml version="1.0" encoding="UTF-8"?>
<svg width="228px" height="51px" viewBox="0 0 228 51" version="1.1" xmlns="http://www.w3.org/2000/svg" xmlns:xlink="http://www.w3.org/1999/xlink">
    <!-- Generator: Sketch 51.3 (57544) - http://www.bohemiancoding.com/sketch -->
    <title>Clip 2</title>
    <desc>Created with Sketch.</desc>
    <defs>
        <path d="M110.044739,2.24704385 L11.1596522,2.24704385 C-0.508,2.24704385 3.72486957,26.9250175 3.72486957,33.0541874 C3.72486957,40.8930731 2.8996087,46.3586337 12.3566522,48.328724 C26.3910435,51.2573612 44.7648696,48.328724 59.0693913,48.328724 L195.418348,48.328724 C205.380957,48.328724 222.934478,52.029268 226.768348,41.4184306 C230.116478,32.1486371 230.118957,4.92913174 218.657,2.24704385 C214.887565,1.36223135 210.629913,1.06959805 206.198783,1.06959805 C197.339,1.06959805 187.785304,2.24704385 180.070478,2.24704385 L110.044739,2.24704385 Z" id="path-1"></path>
    </defs>
    <g id="Symbols" stroke="none" stroke-width="1" fill="none" fill-rule="evenodd">
        <g id="Button/-Outlined" transform="translate(-2.000000, 0.000000)">
            <mask id="mask-2" fill="white">
                <use xlink:href="#path-1"></use>
            </mask>
            <use id="Clip-2" stroke="#DE3A43" xlink:href="#path-1"></use>
        </g>
    </g>
</svg>